G04 Layer_Physical_Order=2*
G04 Layer_Color=11436288*
%FSLAX42Y42*%
%MOMM*%
G71*
G01*
G75*
%ADD11C,0.25*%
%ADD12C,1.27*%
%ADD13C,1.52*%
%ADD14C,1.78*%
%ADD15C,1.50*%
%ADD16R,1.50X1.50*%
%ADD17R,1.55X1.55*%
%ADD18C,1.55*%
%ADD19C,1.60*%
%ADD20C,1.65*%
%ADD21R,1.47X1.47*%
%ADD22C,1.47*%
%ADD23R,1.78X1.78*%
%ADD24C,1.91*%
%ADD25R,1.91X1.91*%
%ADD26R,3.20X2.10*%
%ADD27R,0.90X2.10*%
G36*
X13506Y2774D02*
X7996D01*
Y2851D01*
X11390D01*
X11405Y2854D01*
X11417Y2863D01*
X11533Y2978D01*
X11648Y3093D01*
X11656Y3106D01*
X11659Y3120D01*
Y4238D01*
X11909Y4488D01*
X11915Y4485D01*
X11938Y4482D01*
X11961Y4485D01*
X11983Y4494D01*
X12001Y4509D01*
X12016Y4527D01*
X12025Y4549D01*
X12028Y4572D01*
X12025Y4595D01*
X12016Y4617D01*
X12001Y4635D01*
X11983Y4650D01*
X11977Y4652D01*
Y4809D01*
X11983Y4812D01*
X12001Y4826D01*
X12016Y4845D01*
X12025Y4866D01*
X12028Y4890D01*
X12025Y4913D01*
X12016Y4934D01*
X12001Y4953D01*
X11983Y4967D01*
X11961Y4976D01*
X11938Y4979D01*
X11915Y4976D01*
X11893Y4967D01*
X11875Y4953D01*
X11860Y4934D01*
X11851Y4913D01*
X11848Y4890D01*
X11851Y4866D01*
X11860Y4845D01*
X11875Y4826D01*
X11893Y4812D01*
X11899Y4809D01*
Y4652D01*
X11893Y4650D01*
X11875Y4635D01*
X11860Y4617D01*
X11851Y4595D01*
X11848Y4572D01*
X11851Y4549D01*
X11854Y4543D01*
X11604Y4293D01*
X10996D01*
X10992Y4305D01*
X10995Y4308D01*
X11012Y4330D01*
X11022Y4355D01*
X11026Y4381D01*
X11022Y4408D01*
X11012Y4433D01*
X10995Y4455D01*
X10974Y4471D01*
X10949Y4482D01*
X10922Y4485D01*
X10895Y4482D01*
X10870Y4471D01*
X10849Y4455D01*
X10832Y4433D01*
X10822Y4408D01*
X10818Y4381D01*
X10822Y4355D01*
X10832Y4330D01*
X10849Y4308D01*
X10852Y4305D01*
X10848Y4293D01*
X10700D01*
X10694Y4306D01*
X10678Y4328D01*
X10656Y4344D01*
X10631Y4355D01*
X10604Y4358D01*
X10578Y4355D01*
X10553Y4344D01*
X10531Y4328D01*
X10515Y4306D01*
X10504Y4281D01*
X10501Y4254D01*
X10504Y4228D01*
X10515Y4203D01*
X10531Y4181D01*
X10553Y4165D01*
X10578Y4154D01*
X10604Y4151D01*
X10631Y4154D01*
X10656Y4165D01*
X10678Y4181D01*
X10694Y4203D01*
X10700Y4216D01*
X10848D01*
X10852Y4204D01*
X10849Y4201D01*
X10832Y4179D01*
X10822Y4154D01*
X10818Y4128D01*
X10822Y4101D01*
X10832Y4076D01*
X10849Y4054D01*
X10870Y4038D01*
X10895Y4027D01*
X10922Y4024D01*
X10949Y4027D01*
X10974Y4038D01*
X10995Y4054D01*
X11012Y4076D01*
X11022Y4101D01*
X11026Y4128D01*
X11022Y4154D01*
X11012Y4179D01*
X10995Y4201D01*
X10992Y4204D01*
X10996Y4216D01*
X11582D01*
Y3137D01*
X11505Y3060D01*
X11172Y3393D01*
X11160Y3401D01*
X11145Y3404D01*
X11017D01*
X11012Y3417D01*
X10995Y3439D01*
X10974Y3455D01*
X10949Y3466D01*
X10922Y3469D01*
X10895Y3466D01*
X10870Y3455D01*
X10849Y3439D01*
X10832Y3417D01*
X10822Y3392D01*
X10818Y3365D01*
X10822Y3339D01*
X10832Y3314D01*
X10849Y3292D01*
X10870Y3276D01*
X10895Y3265D01*
X10922Y3262D01*
X10949Y3265D01*
X10974Y3276D01*
X10995Y3292D01*
X11012Y3314D01*
X11017Y3327D01*
X11129D01*
X11450Y3005D01*
X11374Y2929D01*
X7996D01*
Y3020D01*
X7849D01*
Y3137D01*
Y3330D01*
X7881D01*
Y3590D01*
X7740D01*
Y3330D01*
X7772D01*
Y3176D01*
X7206D01*
X7201Y3188D01*
X7184Y3209D01*
X7163Y3226D01*
X7149Y3232D01*
Y3245D01*
X7163Y3251D01*
X7184Y3268D01*
X7201Y3289D01*
X7206Y3301D01*
X7461D01*
X7475Y3304D01*
X7488Y3313D01*
X7500Y3324D01*
X7510Y3330D01*
Y3330D01*
X7510Y3330D01*
X7651D01*
Y3590D01*
X7510D01*
Y3445D01*
X7445Y3379D01*
X7206D01*
X7201Y3391D01*
X7184Y3413D01*
X7163Y3429D01*
X7139Y3439D01*
X7112Y3443D01*
X7085Y3439D01*
X7061Y3429D01*
X7040Y3413D01*
X7023Y3391D01*
X7013Y3367D01*
X7010Y3340D01*
X7013Y3314D01*
X7023Y3289D01*
X7040Y3268D01*
X7061Y3251D01*
X7075Y3245D01*
Y3232D01*
X7061Y3226D01*
X7040Y3209D01*
X7023Y3188D01*
X7013Y3163D01*
X7010Y3137D01*
X7013Y3110D01*
X7023Y3086D01*
X7040Y3064D01*
X7061Y3048D01*
X7085Y3038D01*
X7112Y3034D01*
X7139Y3038D01*
X7163Y3048D01*
X7184Y3064D01*
X7201Y3086D01*
X7206Y3098D01*
X7772D01*
Y3020D01*
X7625D01*
Y2774D01*
X2574D01*
Y5356D01*
X7605D01*
Y5096D01*
X7751D01*
Y4966D01*
X7206D01*
X7201Y4979D01*
X7184Y5000D01*
X7163Y5016D01*
X7139Y5027D01*
X7112Y5030D01*
X7085Y5027D01*
X7061Y5016D01*
X7040Y5000D01*
X7023Y4979D01*
X7013Y4954D01*
X7010Y4928D01*
X7013Y4901D01*
X7023Y4876D01*
X7040Y4855D01*
X7061Y4839D01*
X7075Y4833D01*
Y4819D01*
X7061Y4813D01*
X7040Y4797D01*
X7023Y4776D01*
X7013Y4751D01*
X7010Y4724D01*
X7013Y4698D01*
X7023Y4673D01*
X7040Y4652D01*
X7061Y4636D01*
X7085Y4625D01*
X7112Y4622D01*
X7139Y4625D01*
X7163Y4636D01*
X7184Y4652D01*
X7201Y4673D01*
X7211Y4698D01*
X7214Y4724D01*
X7211Y4751D01*
X7201Y4776D01*
X7184Y4797D01*
X7163Y4813D01*
X7149Y4819D01*
Y4833D01*
X7163Y4839D01*
X7184Y4855D01*
X7201Y4876D01*
X7206Y4889D01*
X7751D01*
Y4787D01*
X7720D01*
Y4526D01*
X7860D01*
Y4787D01*
X7829D01*
Y4928D01*
Y5096D01*
X7975D01*
Y5356D01*
X13506D01*
Y2774D01*
D02*
G37*
%LPC*%
G36*
X13153Y3379D02*
Y3278D01*
X13254D01*
X13251Y3295D01*
X13240Y3323D01*
X13222Y3347D01*
X13198Y3365D01*
X13170Y3376D01*
X13153Y3379D01*
D02*
G37*
G36*
X13127D02*
X13110Y3376D01*
X13082Y3365D01*
X13058Y3347D01*
X13040Y3323D01*
X13029Y3295D01*
X13026Y3278D01*
X13127D01*
Y3379D01*
D02*
G37*
G36*
X8028Y3447D02*
X7970D01*
Y3330D01*
X8028D01*
Y3447D01*
D02*
G37*
G36*
X8111D02*
X8053D01*
Y3330D01*
X8111D01*
Y3447D01*
D02*
G37*
G36*
X6604Y3436D02*
X6576Y3433D01*
X6550Y3422D01*
X6527Y3404D01*
X6510Y3382D01*
X6499Y3356D01*
X6495Y3327D01*
X6499Y3299D01*
X6510Y3273D01*
X6527Y3250D01*
X6550Y3233D01*
X6576Y3222D01*
X6604Y3219D01*
X6632Y3222D01*
X6658Y3233D01*
X6681Y3250D01*
X6698Y3273D01*
X6709Y3299D01*
X6713Y3327D01*
X6709Y3356D01*
X6698Y3382D01*
X6681Y3404D01*
X6658Y3422D01*
X6632Y3433D01*
X6604Y3436D01*
D02*
G37*
G36*
X6350D02*
X6322Y3433D01*
X6296Y3422D01*
X6273Y3404D01*
X6256Y3382D01*
X6245Y3356D01*
X6241Y3327D01*
X6245Y3299D01*
X6256Y3273D01*
X6273Y3250D01*
X6296Y3233D01*
X6322Y3222D01*
X6350Y3219D01*
X6378Y3222D01*
X6404Y3233D01*
X6427Y3250D01*
X6444Y3273D01*
X6455Y3299D01*
X6459Y3327D01*
X6455Y3356D01*
X6444Y3382D01*
X6427Y3404D01*
X6404Y3422D01*
X6378Y3433D01*
X6350Y3436D01*
D02*
G37*
G36*
X2892Y3461D02*
X2865Y3458D01*
X2839Y3447D01*
X2817Y3430D01*
X2800Y3408D01*
X2790Y3383D01*
X2786Y3355D01*
X2790Y3328D01*
X2800Y3302D01*
X2817Y3280D01*
X2839Y3263D01*
X2865Y3252D01*
X2892Y3249D01*
X2920Y3252D01*
X2946Y3263D01*
X2968Y3280D01*
X2984Y3302D01*
X2995Y3328D01*
X2999Y3355D01*
X2995Y3383D01*
X2984Y3408D01*
X2968Y3430D01*
X2946Y3447D01*
X2920Y3458D01*
X2892Y3461D01*
D02*
G37*
G36*
X12291Y3338D02*
X12205D01*
Y3251D01*
X12291D01*
Y3338D01*
D02*
G37*
G36*
X12179D02*
X12093D01*
Y3251D01*
X12179D01*
Y3338D01*
D02*
G37*
G36*
X10922Y3977D02*
X10895Y3974D01*
X10870Y3963D01*
X10849Y3947D01*
X10832Y3925D01*
X10822Y3900D01*
X10818Y3874D01*
X10822Y3847D01*
X10832Y3822D01*
X10849Y3800D01*
X10870Y3784D01*
X10895Y3773D01*
X10922Y3770D01*
X10949Y3773D01*
X10974Y3784D01*
X10995Y3800D01*
X11012Y3822D01*
X11022Y3847D01*
X11026Y3874D01*
X11022Y3900D01*
X11012Y3925D01*
X10995Y3947D01*
X10974Y3963D01*
X10949Y3974D01*
X10922Y3977D01*
D02*
G37*
G36*
X2731Y5106D02*
X2707Y5103D01*
X2686Y5094D01*
X2667Y5080D01*
X2653Y5061D01*
X2644Y5040D01*
X2641Y5017D01*
X2644Y4993D01*
X2653Y4972D01*
X2667Y4953D01*
X2686Y4939D01*
X2692Y4936D01*
Y4072D01*
X2695Y4057D01*
X2703Y4045D01*
X2821Y3926D01*
X2814Y3907D01*
X2810Y3878D01*
X2814Y3848D01*
X2825Y3820D01*
X2843Y3796D01*
X2867Y3778D01*
X2895Y3766D01*
X2925Y3762D01*
X2955Y3766D01*
X2983Y3778D01*
X3007Y3796D01*
X3025Y3820D01*
X3033Y3839D01*
X5078D01*
X5092Y3842D01*
X5105Y3850D01*
X5361Y4107D01*
X5370Y4119D01*
X5373Y4134D01*
Y4751D01*
X5388Y4757D01*
X5411Y4774D01*
X5428Y4797D01*
X5439Y4823D01*
X5443Y4851D01*
X5439Y4880D01*
X5428Y4906D01*
X5411Y4928D01*
X5388Y4946D01*
X5362Y4957D01*
X5334Y4960D01*
X5306Y4957D01*
X5280Y4946D01*
X5257Y4928D01*
X5240Y4906D01*
X5229Y4880D01*
X5225Y4851D01*
X5229Y4823D01*
X5240Y4797D01*
X5257Y4774D01*
X5280Y4757D01*
X5295Y4751D01*
Y4150D01*
X5061Y3916D01*
X3033D01*
X3025Y3935D01*
X3007Y3959D01*
X2983Y3977D01*
X2955Y3989D01*
X2925Y3993D01*
X2895Y3989D01*
X2876Y3981D01*
X2769Y4088D01*
Y4936D01*
X2775Y4939D01*
X2794Y4953D01*
X2808Y4972D01*
X2817Y4993D01*
X2820Y5017D01*
X2817Y5040D01*
X2808Y5061D01*
X2794Y5080D01*
X2775Y5094D01*
X2754Y5103D01*
X2731Y5106D01*
D02*
G37*
G36*
X11176Y4154D02*
X11153Y4151D01*
X11131Y4142D01*
X11113Y4127D01*
X11098Y4109D01*
X11089Y4087D01*
X11086Y4064D01*
X11089Y4041D01*
X11098Y4019D01*
X11113Y4001D01*
X11131Y3986D01*
X11153Y3977D01*
X11176Y3974D01*
X11199Y3977D01*
X11221Y3986D01*
X11239Y4001D01*
X11254Y4019D01*
X11263Y4041D01*
X11266Y4064D01*
X11263Y4087D01*
X11254Y4109D01*
X11239Y4127D01*
X11221Y4142D01*
X11199Y4151D01*
X11176Y4154D01*
D02*
G37*
G36*
X10604Y4104D02*
X10578Y4101D01*
X10553Y4090D01*
X10531Y4074D01*
X10515Y4052D01*
X10504Y4027D01*
X10501Y4001D01*
X10504Y3974D01*
X10515Y3949D01*
X10531Y3927D01*
X10553Y3911D01*
X10578Y3900D01*
X10604Y3897D01*
X10631Y3900D01*
X10656Y3911D01*
X10678Y3927D01*
X10694Y3949D01*
X10705Y3974D01*
X10708Y4001D01*
X10705Y4027D01*
X10694Y4052D01*
X10678Y4074D01*
X10656Y4090D01*
X10631Y4101D01*
X10604Y4104D01*
D02*
G37*
G36*
Y3850D02*
X10578Y3847D01*
X10553Y3836D01*
X10531Y3820D01*
X10515Y3798D01*
X10504Y3773D01*
X10501Y3747D01*
X10504Y3720D01*
X10515Y3695D01*
X10531Y3673D01*
X10553Y3657D01*
X10578Y3646D01*
X10604Y3643D01*
X10631Y3646D01*
X10656Y3657D01*
X10678Y3673D01*
X10694Y3695D01*
X10705Y3720D01*
X10708Y3747D01*
X10705Y3773D01*
X10694Y3798D01*
X10678Y3820D01*
X10656Y3836D01*
X10631Y3847D01*
X10604Y3850D01*
D02*
G37*
G36*
X8028Y3590D02*
X7970D01*
Y3473D01*
X8028D01*
Y3590D01*
D02*
G37*
G36*
X5842Y4960D02*
X5814Y4957D01*
X5788Y4946D01*
X5765Y4928D01*
X5748Y4906D01*
X5737Y4880D01*
X5733Y4851D01*
X5737Y4823D01*
X5748Y4797D01*
X5765Y4774D01*
X5788Y4757D01*
X5814Y4746D01*
X5842Y4743D01*
X5870Y4746D01*
X5886Y4753D01*
X5973Y4665D01*
X5970Y4652D01*
X5966Y4652D01*
X5940Y4641D01*
X5917Y4624D01*
X5900Y4601D01*
X5889Y4575D01*
X5886Y4547D01*
X5889Y4518D01*
X5900Y4492D01*
X5917Y4470D01*
X5940Y4452D01*
X5966Y4441D01*
X5994Y4438D01*
X6023Y4441D01*
X6049Y4452D01*
X6071Y4470D01*
X6089Y4492D01*
X6100Y4518D01*
X6103Y4547D01*
X6100Y4575D01*
X6089Y4601D01*
X6071Y4624D01*
X6052Y4638D01*
X6056Y4651D01*
X6174D01*
X6513Y4313D01*
X6525Y4304D01*
X6540Y4301D01*
X9741D01*
X10510Y3532D01*
X10504Y3519D01*
X10501Y3492D01*
X10504Y3466D01*
X10515Y3441D01*
X10531Y3419D01*
X10553Y3403D01*
X10578Y3392D01*
X10604Y3389D01*
X10631Y3392D01*
X10656Y3403D01*
X10678Y3419D01*
X10694Y3441D01*
X10705Y3466D01*
X10708Y3492D01*
X10705Y3519D01*
X10694Y3544D01*
X10678Y3566D01*
X10656Y3582D01*
X10631Y3593D01*
X10604Y3596D01*
X10578Y3593D01*
X10565Y3587D01*
X9784Y4367D01*
X9772Y4376D01*
X9757Y4379D01*
X6556D01*
X6217Y4717D01*
X6205Y4726D01*
X6190Y4729D01*
X6019D01*
X5941Y4808D01*
X5947Y4823D01*
X5951Y4851D01*
X5947Y4880D01*
X5936Y4906D01*
X5919Y4928D01*
X5896Y4946D01*
X5870Y4957D01*
X5842Y4960D01*
D02*
G37*
G36*
X10922Y3723D02*
X10895Y3720D01*
X10870Y3709D01*
X10849Y3693D01*
X10832Y3671D01*
X10822Y3646D01*
X10818Y3619D01*
X10822Y3593D01*
X10832Y3568D01*
X10849Y3546D01*
X10870Y3530D01*
X10895Y3519D01*
X10922Y3516D01*
X10949Y3519D01*
X10974Y3530D01*
X10995Y3546D01*
X11012Y3568D01*
X11022Y3593D01*
X11026Y3619D01*
X11022Y3646D01*
X11012Y3671D01*
X10995Y3693D01*
X10974Y3709D01*
X10949Y3720D01*
X10922Y3723D01*
D02*
G37*
G36*
X8111Y3590D02*
X8053D01*
Y3473D01*
X8111D01*
Y3590D01*
D02*
G37*
G36*
X6096Y3436D02*
X6068Y3433D01*
X6042Y3422D01*
X6019Y3404D01*
X6002Y3382D01*
X5991Y3356D01*
X5987Y3327D01*
X5991Y3299D01*
X6002Y3273D01*
X6019Y3250D01*
X6042Y3233D01*
X6068Y3222D01*
X6096Y3219D01*
X6124Y3222D01*
X6150Y3233D01*
X6173Y3250D01*
X6190Y3273D01*
X6201Y3299D01*
X6205Y3327D01*
X6201Y3356D01*
X6190Y3382D01*
X6173Y3404D01*
X6150Y3422D01*
X6124Y3433D01*
X6096Y3436D01*
D02*
G37*
G36*
X12291Y3226D02*
X12205D01*
Y3139D01*
X12291D01*
Y3226D01*
D02*
G37*
G36*
X12179D02*
X12093D01*
Y3139D01*
X12179D01*
Y3226D01*
D02*
G37*
G36*
X13254Y3252D02*
X13153D01*
Y3151D01*
X13170Y3154D01*
X13198Y3165D01*
X13222Y3183D01*
X13240Y3207D01*
X13251Y3235D01*
X13254Y3252D01*
D02*
G37*
G36*
X13127D02*
X13026D01*
X13029Y3235D01*
X13040Y3207D01*
X13058Y3183D01*
X13082Y3165D01*
X13110Y3154D01*
X13127Y3151D01*
Y3252D01*
D02*
G37*
G36*
X12542Y3338D02*
X12516Y3335D01*
X12492Y3325D01*
X12471Y3309D01*
X12455Y3288D01*
X12445Y3264D01*
X12442Y3238D01*
X12445Y3213D01*
X12455Y3189D01*
X12471Y3168D01*
X12492Y3152D01*
X12516Y3142D01*
X12542Y3139D01*
X12568Y3142D01*
X12592Y3152D01*
X12613Y3168D01*
X12629Y3189D01*
X12639Y3213D01*
X12642Y3238D01*
X12639Y3264D01*
X12629Y3288D01*
X12613Y3309D01*
X12592Y3325D01*
X12568Y3335D01*
X12542Y3338D01*
D02*
G37*
G36*
X2892Y3207D02*
X2865Y3204D01*
X2839Y3193D01*
X2817Y3176D01*
X2800Y3154D01*
X2790Y3129D01*
X2786Y3101D01*
X2790Y3074D01*
X2800Y3048D01*
X2817Y3026D01*
X2839Y3009D01*
X2865Y2998D01*
X2892Y2995D01*
X2920Y2998D01*
X2946Y3009D01*
X2968Y3026D01*
X2984Y3048D01*
X2995Y3074D01*
X2999Y3101D01*
X2995Y3129D01*
X2984Y3154D01*
X2968Y3176D01*
X2946Y3193D01*
X2920Y3204D01*
X2892Y3207D01*
D02*
G37*
G36*
X13254Y3129D02*
X13026D01*
Y2901D01*
X13254D01*
Y3129D01*
D02*
G37*
G36*
X10707Y3341D02*
X10502D01*
Y3136D01*
X10707D01*
Y3341D01*
D02*
G37*
G36*
X11025Y3214D02*
X10819D01*
Y3009D01*
X11025D01*
Y3214D01*
D02*
G37*
G36*
X5334Y3436D02*
X5306Y3433D01*
X5280Y3422D01*
X5257Y3404D01*
X5240Y3382D01*
X5229Y3356D01*
X5225Y3327D01*
X5229Y3299D01*
X5240Y3273D01*
X5257Y3250D01*
X5280Y3233D01*
X5306Y3222D01*
X5334Y3219D01*
X5362Y3222D01*
X5388Y3233D01*
X5411Y3250D01*
X5428Y3273D01*
X5439Y3299D01*
X5443Y3327D01*
X5439Y3356D01*
X5428Y3382D01*
X5411Y3404D01*
X5388Y3422D01*
X5362Y3433D01*
X5334Y3436D01*
D02*
G37*
G36*
X5080D02*
X5052Y3433D01*
X5026Y3422D01*
X5003Y3404D01*
X4986Y3382D01*
X4975Y3356D01*
X4971Y3327D01*
X4975Y3299D01*
X4986Y3273D01*
X5003Y3250D01*
X5026Y3233D01*
X5052Y3222D01*
X5080Y3219D01*
X5108Y3222D01*
X5134Y3233D01*
X5157Y3250D01*
X5174Y3273D01*
X5185Y3299D01*
X5189Y3327D01*
X5185Y3356D01*
X5174Y3382D01*
X5157Y3404D01*
X5134Y3422D01*
X5108Y3433D01*
X5080Y3436D01*
D02*
G37*
G36*
X5842D02*
X5814Y3433D01*
X5788Y3422D01*
X5765Y3404D01*
X5748Y3382D01*
X5737Y3356D01*
X5733Y3327D01*
X5737Y3299D01*
X5748Y3273D01*
X5765Y3250D01*
X5788Y3233D01*
X5814Y3222D01*
X5842Y3219D01*
X5870Y3222D01*
X5896Y3233D01*
X5919Y3250D01*
X5936Y3273D01*
X5947Y3299D01*
X5951Y3327D01*
X5947Y3356D01*
X5936Y3382D01*
X5919Y3404D01*
X5896Y3422D01*
X5870Y3433D01*
X5842Y3436D01*
D02*
G37*
G36*
X5588D02*
X5560Y3433D01*
X5534Y3422D01*
X5511Y3404D01*
X5494Y3382D01*
X5483Y3356D01*
X5479Y3327D01*
X5483Y3299D01*
X5494Y3273D01*
X5511Y3250D01*
X5534Y3233D01*
X5560Y3222D01*
X5588Y3219D01*
X5616Y3222D01*
X5642Y3233D01*
X5665Y3250D01*
X5682Y3273D01*
X5693Y3299D01*
X5697Y3327D01*
X5693Y3356D01*
X5682Y3382D01*
X5665Y3404D01*
X5642Y3422D01*
X5616Y3433D01*
X5588Y3436D01*
D02*
G37*
G36*
X4826D02*
X4798Y3433D01*
X4772Y3422D01*
X4749Y3404D01*
X4732Y3382D01*
X4721Y3356D01*
X4717Y3327D01*
X4721Y3299D01*
X4732Y3273D01*
X4749Y3250D01*
X4772Y3233D01*
X4798Y3222D01*
X4826Y3219D01*
X4854Y3222D01*
X4880Y3233D01*
X4903Y3250D01*
X4920Y3273D01*
X4931Y3299D01*
X4935Y3327D01*
X4931Y3356D01*
X4920Y3382D01*
X4903Y3404D01*
X4880Y3422D01*
X4854Y3433D01*
X4826Y3436D01*
D02*
G37*
G36*
X4064D02*
X4036Y3433D01*
X4010Y3422D01*
X3987Y3404D01*
X3970Y3382D01*
X3959Y3356D01*
X3955Y3327D01*
X3959Y3299D01*
X3970Y3273D01*
X3987Y3250D01*
X4010Y3233D01*
X4036Y3222D01*
X4064Y3219D01*
X4092Y3222D01*
X4118Y3233D01*
X4141Y3250D01*
X4158Y3273D01*
X4169Y3299D01*
X4173Y3327D01*
X4169Y3356D01*
X4158Y3382D01*
X4141Y3404D01*
X4118Y3422D01*
X4092Y3433D01*
X4064Y3436D01*
D02*
G37*
G36*
X3810D02*
X3782Y3433D01*
X3756Y3422D01*
X3733Y3404D01*
X3716Y3382D01*
X3705Y3356D01*
X3701Y3327D01*
X3705Y3299D01*
X3716Y3273D01*
X3733Y3250D01*
X3756Y3233D01*
X3782Y3222D01*
X3810Y3219D01*
X3838Y3222D01*
X3864Y3233D01*
X3887Y3250D01*
X3904Y3273D01*
X3915Y3299D01*
X3919Y3327D01*
X3915Y3356D01*
X3904Y3382D01*
X3887Y3404D01*
X3864Y3422D01*
X3838Y3433D01*
X3810Y3436D01*
D02*
G37*
G36*
X4572D02*
X4544Y3433D01*
X4518Y3422D01*
X4495Y3404D01*
X4478Y3382D01*
X4467Y3356D01*
X4463Y3327D01*
X4467Y3299D01*
X4478Y3273D01*
X4495Y3250D01*
X4518Y3233D01*
X4544Y3222D01*
X4572Y3219D01*
X4600Y3222D01*
X4626Y3233D01*
X4649Y3250D01*
X4666Y3273D01*
X4677Y3299D01*
X4681Y3327D01*
X4677Y3356D01*
X4666Y3382D01*
X4649Y3404D01*
X4626Y3422D01*
X4600Y3433D01*
X4572Y3436D01*
D02*
G37*
G36*
X4318D02*
X4290Y3433D01*
X4264Y3422D01*
X4241Y3404D01*
X4224Y3382D01*
X4213Y3356D01*
X4209Y3327D01*
X4213Y3299D01*
X4224Y3273D01*
X4241Y3250D01*
X4264Y3233D01*
X4290Y3222D01*
X4318Y3219D01*
X4346Y3222D01*
X4372Y3233D01*
X4395Y3250D01*
X4412Y3273D01*
X4423Y3299D01*
X4427Y3327D01*
X4423Y3356D01*
X4412Y3382D01*
X4395Y3404D01*
X4372Y3422D01*
X4346Y3433D01*
X4318Y3436D01*
D02*
G37*
G36*
X13254Y4979D02*
X13026D01*
Y4751D01*
X13254D01*
Y4979D01*
D02*
G37*
G36*
X3917Y4839D02*
X3823D01*
Y4744D01*
X3838Y4746D01*
X3864Y4757D01*
X3887Y4774D01*
X3904Y4797D01*
X3915Y4823D01*
X3917Y4839D01*
D02*
G37*
G36*
X3797Y4959D02*
X3782Y4957D01*
X3756Y4946D01*
X3733Y4928D01*
X3716Y4906D01*
X3705Y4880D01*
X3703Y4864D01*
X3797D01*
Y4959D01*
D02*
G37*
G36*
X10922Y4993D02*
X10895Y4990D01*
X10870Y4979D01*
X10849Y4963D01*
X10832Y4941D01*
X10822Y4916D01*
X10818Y4890D01*
X10822Y4863D01*
X10832Y4838D01*
X10849Y4816D01*
X10870Y4800D01*
X10895Y4789D01*
X10922Y4786D01*
X10949Y4789D01*
X10974Y4800D01*
X10995Y4816D01*
X11012Y4838D01*
X11017Y4851D01*
X11096D01*
X11098Y4845D01*
X11113Y4826D01*
X11131Y4812D01*
X11153Y4803D01*
X11176Y4800D01*
X11199Y4803D01*
X11221Y4812D01*
X11239Y4826D01*
X11254Y4845D01*
X11263Y4866D01*
X11266Y4890D01*
X11263Y4913D01*
X11254Y4934D01*
X11239Y4953D01*
X11221Y4967D01*
X11199Y4976D01*
X11176Y4979D01*
X11153Y4976D01*
X11131Y4967D01*
X11113Y4953D01*
X11098Y4934D01*
X11096Y4928D01*
X11017D01*
X11012Y4941D01*
X10995Y4963D01*
X10974Y4979D01*
X10949Y4990D01*
X10922Y4993D01*
D02*
G37*
G36*
X3797Y4839D02*
X3703D01*
X3705Y4823D01*
X3716Y4797D01*
X3733Y4774D01*
X3756Y4757D01*
X3782Y4746D01*
X3797Y4744D01*
Y4839D01*
D02*
G37*
G36*
X6096Y4960D02*
X6068Y4957D01*
X6042Y4946D01*
X6019Y4928D01*
X6002Y4906D01*
X5991Y4880D01*
X5987Y4851D01*
X5991Y4823D01*
X6002Y4797D01*
X6019Y4774D01*
X6042Y4757D01*
X6068Y4746D01*
X6096Y4743D01*
X6124Y4746D01*
X6150Y4757D01*
X6173Y4774D01*
X6190Y4797D01*
X6201Y4823D01*
X6205Y4851D01*
X6201Y4880D01*
X6190Y4906D01*
X6173Y4928D01*
X6150Y4946D01*
X6124Y4957D01*
X6096Y4960D01*
D02*
G37*
G36*
X5080D02*
X5052Y4957D01*
X5026Y4946D01*
X5003Y4928D01*
X4986Y4906D01*
X4975Y4880D01*
X4971Y4851D01*
X4975Y4823D01*
X4986Y4797D01*
X5003Y4774D01*
X5026Y4757D01*
X5052Y4746D01*
X5080Y4743D01*
X5108Y4746D01*
X5134Y4757D01*
X5157Y4774D01*
X5174Y4797D01*
X5185Y4823D01*
X5189Y4851D01*
X5185Y4880D01*
X5174Y4906D01*
X5157Y4928D01*
X5134Y4946D01*
X5108Y4957D01*
X5080Y4960D01*
D02*
G37*
G36*
X6604D02*
X6576Y4957D01*
X6550Y4946D01*
X6527Y4928D01*
X6510Y4906D01*
X6499Y4880D01*
X6495Y4851D01*
X6499Y4823D01*
X6510Y4797D01*
X6527Y4774D01*
X6550Y4757D01*
X6576Y4746D01*
X6604Y4743D01*
X6632Y4746D01*
X6658Y4757D01*
X6681Y4774D01*
X6698Y4797D01*
X6709Y4823D01*
X6713Y4851D01*
X6709Y4880D01*
X6698Y4906D01*
X6681Y4928D01*
X6658Y4946D01*
X6632Y4957D01*
X6604Y4960D01*
D02*
G37*
G36*
X6350D02*
X6322Y4957D01*
X6296Y4946D01*
X6273Y4928D01*
X6256Y4906D01*
X6245Y4880D01*
X6241Y4851D01*
X6245Y4823D01*
X6256Y4797D01*
X6273Y4774D01*
X6296Y4757D01*
X6322Y4746D01*
X6350Y4743D01*
X6378Y4746D01*
X6404Y4757D01*
X6427Y4774D01*
X6444Y4797D01*
X6455Y4823D01*
X6459Y4851D01*
X6455Y4880D01*
X6444Y4906D01*
X6427Y4928D01*
X6404Y4946D01*
X6378Y4957D01*
X6350Y4960D01*
D02*
G37*
G36*
X6337Y5245D02*
X6327Y5244D01*
X6305Y5235D01*
X6287Y5220D01*
X6272Y5202D01*
X6263Y5180D01*
X6262Y5170D01*
X6337D01*
Y5245D01*
D02*
G37*
G36*
X6438Y5144D02*
X6363D01*
Y5069D01*
X6373Y5070D01*
X6395Y5079D01*
X6413Y5094D01*
X6428Y5112D01*
X6437Y5134D01*
X6438Y5144D01*
D02*
G37*
G36*
X5588Y5247D02*
X5565Y5244D01*
X5543Y5235D01*
X5525Y5220D01*
X5510Y5202D01*
X5508Y5196D01*
X5414D01*
X5412Y5202D01*
X5397Y5220D01*
X5379Y5235D01*
X5357Y5244D01*
X5334Y5247D01*
X5311Y5244D01*
X5289Y5235D01*
X5271Y5220D01*
X5256Y5202D01*
X5247Y5180D01*
X5244Y5157D01*
X5247Y5134D01*
X5256Y5112D01*
X5271Y5094D01*
X5289Y5079D01*
X5311Y5070D01*
X5334Y5067D01*
X5357Y5070D01*
X5379Y5079D01*
X5397Y5094D01*
X5412Y5112D01*
X5414Y5118D01*
X5508D01*
X5510Y5112D01*
X5525Y5094D01*
X5543Y5079D01*
X5549Y5077D01*
Y4952D01*
X5534Y4946D01*
X5511Y4928D01*
X5494Y4906D01*
X5483Y4880D01*
X5479Y4851D01*
X5483Y4823D01*
X5494Y4797D01*
X5511Y4774D01*
X5534Y4757D01*
X5560Y4746D01*
X5588Y4743D01*
X5616Y4746D01*
X5642Y4757D01*
X5665Y4774D01*
X5682Y4797D01*
X5693Y4823D01*
X5697Y4851D01*
X5693Y4880D01*
X5682Y4906D01*
X5665Y4928D01*
X5642Y4946D01*
X5627Y4952D01*
Y5077D01*
X5633Y5079D01*
X5651Y5094D01*
X5666Y5112D01*
X5675Y5134D01*
X5678Y5157D01*
X5675Y5180D01*
X5666Y5202D01*
X5651Y5220D01*
X5633Y5235D01*
X5611Y5244D01*
X5588Y5247D01*
D02*
G37*
G36*
X6363Y5245D02*
Y5170D01*
X6438D01*
X6437Y5180D01*
X6428Y5202D01*
X6413Y5220D01*
X6395Y5235D01*
X6373Y5244D01*
X6363Y5245D01*
D02*
G37*
G36*
X6337Y5144D02*
X6262D01*
X6263Y5134D01*
X6272Y5112D01*
X6287Y5094D01*
X6305Y5079D01*
X6327Y5070D01*
X6337Y5069D01*
Y5144D01*
D02*
G37*
G36*
X3492Y5106D02*
X3469Y5103D01*
X3448Y5094D01*
X3429Y5080D01*
X3415Y5061D01*
X3406Y5040D01*
X3403Y5017D01*
X3406Y4993D01*
X3415Y4972D01*
X3429Y4953D01*
X3448Y4939D01*
X3469Y4930D01*
X3492Y4927D01*
X3516Y4930D01*
X3537Y4939D01*
X3556Y4953D01*
X3570Y4972D01*
X3579Y4993D01*
X3582Y5017D01*
X3579Y5040D01*
X3570Y5061D01*
X3556Y5080D01*
X3537Y5094D01*
X3516Y5103D01*
X3492Y5106D01*
D02*
G37*
G36*
X3823Y4959D02*
Y4864D01*
X3917D01*
X3915Y4880D01*
X3904Y4906D01*
X3887Y4928D01*
X3864Y4946D01*
X3838Y4957D01*
X3823Y4959D01*
D02*
G37*
G36*
X4572Y5247D02*
X4549Y5244D01*
X4527Y5235D01*
X4509Y5220D01*
X4494Y5202D01*
X4485Y5180D01*
X4482Y5157D01*
X4485Y5134D01*
X4494Y5112D01*
X4509Y5094D01*
X4527Y5079D01*
X4549Y5070D01*
X4572Y5067D01*
X4595Y5070D01*
X4617Y5079D01*
X4635Y5094D01*
X4650Y5112D01*
X4659Y5134D01*
X4662Y5157D01*
X4659Y5180D01*
X4650Y5202D01*
X4635Y5220D01*
X4617Y5235D01*
X4595Y5244D01*
X4572Y5247D01*
D02*
G37*
G36*
X13140Y5230D02*
X13110Y5226D01*
X13082Y5215D01*
X13058Y5197D01*
X13040Y5173D01*
X13029Y5145D01*
X13025Y5115D01*
X13029Y5085D01*
X13040Y5057D01*
X13058Y5033D01*
X13082Y5015D01*
X13110Y5004D01*
X13140Y5000D01*
X13170Y5004D01*
X13198Y5015D01*
X13222Y5033D01*
X13240Y5057D01*
X13251Y5085D01*
X13255Y5115D01*
X13251Y5145D01*
X13240Y5173D01*
X13222Y5197D01*
X13198Y5215D01*
X13170Y5226D01*
X13140Y5230D01*
D02*
G37*
G36*
X4826Y4960D02*
X4798Y4957D01*
X4772Y4946D01*
X4749Y4928D01*
X4732Y4906D01*
X4721Y4880D01*
X4717Y4851D01*
X4721Y4823D01*
X4732Y4797D01*
X4749Y4774D01*
X4772Y4757D01*
X4798Y4746D01*
X4826Y4743D01*
X4854Y4746D01*
X4880Y4757D01*
X4903Y4774D01*
X4920Y4797D01*
X4931Y4823D01*
X4935Y4851D01*
X4931Y4880D01*
X4920Y4906D01*
X4903Y4928D01*
X4880Y4946D01*
X4854Y4957D01*
X4826Y4960D01*
D02*
G37*
G36*
X4953Y4655D02*
X4925Y4652D01*
X4899Y4641D01*
X4876Y4624D01*
X4859Y4601D01*
X4848Y4575D01*
X4844Y4547D01*
X4848Y4518D01*
X4859Y4492D01*
X4876Y4470D01*
X4899Y4452D01*
X4925Y4441D01*
X4953Y4438D01*
X4981Y4441D01*
X5007Y4452D01*
X5030Y4470D01*
X5047Y4492D01*
X5058Y4518D01*
X5062Y4547D01*
X5058Y4575D01*
X5047Y4601D01*
X5030Y4624D01*
X5007Y4641D01*
X4981Y4652D01*
X4953Y4655D01*
D02*
G37*
G36*
X4699D02*
X4671Y4652D01*
X4645Y4641D01*
X4622Y4624D01*
X4605Y4601D01*
X4594Y4575D01*
X4590Y4547D01*
X4594Y4518D01*
X4605Y4492D01*
X4622Y4470D01*
X4645Y4452D01*
X4671Y4441D01*
X4699Y4438D01*
X4727Y4441D01*
X4753Y4452D01*
X4776Y4470D01*
X4793Y4492D01*
X4804Y4518D01*
X4808Y4547D01*
X4804Y4575D01*
X4793Y4601D01*
X4776Y4624D01*
X4753Y4641D01*
X4727Y4652D01*
X4699Y4655D01*
D02*
G37*
G36*
X10922Y4739D02*
X10895Y4736D01*
X10870Y4725D01*
X10849Y4709D01*
X10832Y4687D01*
X10822Y4662D01*
X10818Y4635D01*
X10822Y4609D01*
X10832Y4584D01*
X10849Y4562D01*
X10870Y4546D01*
X10895Y4535D01*
X10922Y4532D01*
X10949Y4535D01*
X10974Y4546D01*
X10995Y4562D01*
X11012Y4584D01*
X11017Y4597D01*
X11077D01*
X11088Y4584D01*
X11086Y4572D01*
X11089Y4549D01*
X11098Y4527D01*
X11113Y4509D01*
X11131Y4494D01*
X11153Y4485D01*
X11176Y4482D01*
X11199Y4485D01*
X11221Y4494D01*
X11239Y4509D01*
X11254Y4527D01*
X11263Y4549D01*
X11266Y4572D01*
X11263Y4595D01*
X11254Y4617D01*
X11239Y4635D01*
X11221Y4650D01*
X11199Y4659D01*
X11176Y4662D01*
X11153Y4659D01*
X11147Y4656D01*
X11140Y4663D01*
X11127Y4671D01*
X11112Y4674D01*
X11017D01*
X11012Y4687D01*
X10995Y4709D01*
X10974Y4725D01*
X10949Y4736D01*
X10922Y4739D01*
D02*
G37*
G36*
X5740Y4655D02*
X5712Y4652D01*
X5686Y4641D01*
X5663Y4624D01*
X5646Y4601D01*
X5635Y4575D01*
X5632Y4547D01*
X5635Y4518D01*
X5646Y4492D01*
X5663Y4470D01*
X5686Y4452D01*
X5712Y4441D01*
X5740Y4438D01*
X5769Y4441D01*
X5795Y4452D01*
X5817Y4470D01*
X5835Y4492D01*
X5846Y4518D01*
X5849Y4547D01*
X5846Y4575D01*
X5835Y4601D01*
X5817Y4624D01*
X5795Y4641D01*
X5769Y4652D01*
X5740Y4655D01*
D02*
G37*
G36*
X10604Y4612D02*
X10578Y4609D01*
X10553Y4598D01*
X10531Y4582D01*
X10515Y4560D01*
X10504Y4535D01*
X10501Y4508D01*
X10504Y4482D01*
X10515Y4457D01*
X10531Y4435D01*
X10553Y4419D01*
X10578Y4408D01*
X10604Y4405D01*
X10631Y4408D01*
X10656Y4419D01*
X10678Y4435D01*
X10694Y4457D01*
X10705Y4482D01*
X10708Y4508D01*
X10705Y4535D01*
X10694Y4560D01*
X10678Y4582D01*
X10656Y4598D01*
X10631Y4609D01*
X10604Y4612D01*
D02*
G37*
G36*
X7540Y4280D02*
X7517Y4277D01*
X7495Y4268D01*
X7477Y4253D01*
X7462Y4235D01*
X7460Y4229D01*
X5620D01*
X5618Y4235D01*
X5603Y4253D01*
X5585Y4268D01*
X5563Y4277D01*
X5540Y4280D01*
X5517Y4277D01*
X5495Y4268D01*
X5477Y4253D01*
X5462Y4235D01*
X5453Y4213D01*
X5450Y4190D01*
X5453Y4167D01*
X5462Y4145D01*
X5477Y4127D01*
X5495Y4112D01*
X5517Y4103D01*
X5540Y4100D01*
X5563Y4103D01*
X5585Y4112D01*
X5603Y4127D01*
X5618Y4145D01*
X5620Y4151D01*
X7460D01*
X7462Y4145D01*
X7477Y4127D01*
X7495Y4112D01*
X7517Y4103D01*
X7540Y4100D01*
X7563Y4103D01*
X7585Y4112D01*
X7603Y4127D01*
X7618Y4145D01*
X7627Y4167D01*
X7630Y4190D01*
X7627Y4213D01*
X7618Y4235D01*
X7603Y4253D01*
X7585Y4268D01*
X7563Y4277D01*
X7540Y4280D01*
D02*
G37*
G36*
X13265Y4301D02*
X13024D01*
Y4193D01*
X13110D01*
X13113Y4182D01*
X13084Y4169D01*
X13058Y4150D01*
X13039Y4125D01*
X13030Y4103D01*
X12018D01*
X12016Y4109D01*
X12001Y4127D01*
X11983Y4142D01*
X11961Y4151D01*
X11938Y4154D01*
X11915Y4151D01*
X11893Y4142D01*
X11875Y4127D01*
X11860Y4109D01*
X11851Y4087D01*
X11848Y4064D01*
X11851Y4041D01*
X11860Y4019D01*
X11875Y4001D01*
X11893Y3986D01*
X11915Y3977D01*
X11938Y3974D01*
X11961Y3977D01*
X11983Y3986D01*
X12001Y4001D01*
X12016Y4019D01*
X12018Y4025D01*
X13030D01*
X13039Y4003D01*
X13058Y3978D01*
X13084Y3959D01*
X13113Y3946D01*
X13121Y3945D01*
Y3933D01*
X13113Y3932D01*
X13084Y3919D01*
X13058Y3900D01*
X13039Y3875D01*
X13027Y3845D01*
X13023Y3814D01*
X13027Y3783D01*
X13039Y3753D01*
X13058Y3728D01*
X13084Y3709D01*
X13113Y3696D01*
X13145Y3692D01*
X13176Y3696D01*
X13205Y3709D01*
X13231Y3728D01*
X13250Y3753D01*
X13262Y3783D01*
X13266Y3814D01*
X13262Y3845D01*
X13250Y3875D01*
X13231Y3900D01*
X13205Y3919D01*
X13176Y3932D01*
X13168Y3933D01*
Y3945D01*
X13176Y3946D01*
X13205Y3959D01*
X13231Y3978D01*
X13250Y4003D01*
X13262Y4033D01*
X13266Y4064D01*
X13262Y4095D01*
X13250Y4125D01*
X13231Y4150D01*
X13205Y4169D01*
X13176Y4182D01*
X13179Y4193D01*
X13265D01*
Y4301D01*
D02*
G37*
G36*
Y4435D02*
X13157D01*
Y4327D01*
X13265D01*
Y4435D01*
D02*
G37*
G36*
X13132D02*
X13024D01*
Y4327D01*
X13132D01*
Y4435D01*
D02*
G37*
G36*
X4064Y4960D02*
X4036Y4957D01*
X4010Y4946D01*
X3987Y4928D01*
X3970Y4906D01*
X3959Y4880D01*
X3955Y4851D01*
X3959Y4823D01*
X3970Y4797D01*
X3987Y4774D01*
X4010Y4757D01*
X4036Y4746D01*
X4064Y4743D01*
X4092Y4746D01*
X4118Y4757D01*
X4141Y4774D01*
X4158Y4797D01*
X4169Y4823D01*
X4173Y4851D01*
X4169Y4880D01*
X4158Y4906D01*
X4141Y4928D01*
X4118Y4946D01*
X4092Y4957D01*
X4064Y4960D01*
D02*
G37*
G36*
X7630Y4787D02*
X7573D01*
Y4669D01*
X7630D01*
Y4787D01*
D02*
G37*
G36*
X4572Y4960D02*
X4544Y4957D01*
X4518Y4946D01*
X4495Y4928D01*
X4478Y4906D01*
X4467Y4880D01*
X4463Y4851D01*
X4467Y4823D01*
X4473Y4808D01*
X4082Y4416D01*
X3033D01*
X3025Y4435D01*
X3007Y4459D01*
X2983Y4477D01*
X2955Y4489D01*
X2925Y4493D01*
X2895Y4489D01*
X2867Y4477D01*
X2843Y4459D01*
X2825Y4435D01*
X2814Y4407D01*
X2810Y4378D01*
X2814Y4348D01*
X2825Y4320D01*
X2843Y4296D01*
X2867Y4278D01*
X2895Y4266D01*
X2925Y4262D01*
X2955Y4266D01*
X2983Y4278D01*
X3007Y4296D01*
X3025Y4320D01*
X3033Y4339D01*
X3386D01*
Y4235D01*
X3367Y4227D01*
X3343Y4209D01*
X3325Y4185D01*
X3314Y4157D01*
X3310Y4128D01*
X3314Y4098D01*
X3325Y4070D01*
X3343Y4046D01*
X3367Y4028D01*
X3395Y4016D01*
X3425Y4012D01*
X3455Y4016D01*
X3483Y4028D01*
X3507Y4046D01*
X3525Y4070D01*
X3536Y4098D01*
X3540Y4128D01*
X3536Y4157D01*
X3525Y4185D01*
X3507Y4209D01*
X3483Y4227D01*
X3464Y4235D01*
Y4339D01*
X4098D01*
X4113Y4342D01*
X4126Y4350D01*
X4528Y4753D01*
X4544Y4746D01*
X4572Y4743D01*
X4600Y4746D01*
X4626Y4757D01*
X4649Y4774D01*
X4666Y4797D01*
X4677Y4823D01*
X4681Y4851D01*
X4677Y4880D01*
X4666Y4906D01*
X4649Y4928D01*
X4626Y4946D01*
X4600Y4957D01*
X4572Y4960D01*
D02*
G37*
G36*
X4318D02*
X4290Y4957D01*
X4264Y4946D01*
X4241Y4928D01*
X4224Y4906D01*
X4213Y4880D01*
X4209Y4851D01*
X4213Y4823D01*
X4224Y4797D01*
X4241Y4774D01*
X4264Y4757D01*
X4290Y4746D01*
X4318Y4743D01*
X4346Y4746D01*
X4372Y4757D01*
X4395Y4774D01*
X4412Y4797D01*
X4423Y4823D01*
X4427Y4851D01*
X4423Y4880D01*
X4412Y4906D01*
X4395Y4928D01*
X4372Y4946D01*
X4346Y4957D01*
X4318Y4960D01*
D02*
G37*
G36*
X7547Y4787D02*
X7490D01*
Y4669D01*
X7547D01*
Y4787D01*
D02*
G37*
G36*
X7630Y4644D02*
X7573D01*
Y4526D01*
X7630D01*
Y4644D01*
D02*
G37*
G36*
X7547D02*
X7490D01*
Y4526D01*
X7547D01*
Y4644D01*
D02*
G37*
G36*
X10604Y4866D02*
X10578Y4863D01*
X10553Y4852D01*
X10531Y4836D01*
X10515Y4814D01*
X10504Y4789D01*
X10501Y4762D01*
X10504Y4736D01*
X10515Y4711D01*
X10531Y4689D01*
X10553Y4673D01*
X10578Y4662D01*
X10604Y4659D01*
X10631Y4662D01*
X10656Y4673D01*
X10678Y4689D01*
X10694Y4711D01*
X10705Y4736D01*
X10708Y4762D01*
X10705Y4789D01*
X10694Y4814D01*
X10678Y4836D01*
X10656Y4852D01*
X10631Y4863D01*
X10604Y4866D01*
D02*
G37*
G36*
X8190Y5030D02*
X8167Y5027D01*
X8145Y5018D01*
X8127Y5003D01*
X8112Y4985D01*
X8103Y4963D01*
X8100Y4940D01*
X8103Y4917D01*
X8112Y4895D01*
X8127Y4877D01*
X8145Y4862D01*
X8151Y4860D01*
Y4843D01*
X8101Y4792D01*
X8090Y4787D01*
Y4787D01*
X8090Y4787D01*
X7950D01*
Y4526D01*
X8090D01*
Y4672D01*
X8219Y4801D01*
X8227Y4813D01*
X8230Y4828D01*
X8229Y4836D01*
Y4860D01*
X8235Y4862D01*
X8253Y4877D01*
X8268Y4895D01*
X8277Y4917D01*
X8280Y4940D01*
X8277Y4963D01*
X8268Y4985D01*
X8253Y5003D01*
X8235Y5018D01*
X8213Y5027D01*
X8190Y5030D01*
D02*
G37*
%LPD*%
D11*
X7811Y3137D02*
Y3460D01*
Y2890D02*
Y3137D01*
X7112D02*
X7811D01*
X7790Y4657D02*
Y4928D01*
Y5227D01*
X7112Y3340D02*
X7461D01*
X7581Y3460D01*
X8020Y4657D02*
X8192Y4828D01*
X8190Y4830D02*
X8192Y4828D01*
X8190Y4830D02*
Y4940D01*
X4098Y4378D02*
X4572Y4851D01*
X3425Y4128D02*
Y4378D01*
X2925D02*
X3425D01*
X4098D01*
X2731Y4072D02*
X2925Y3878D01*
X2731Y4072D02*
Y5017D01*
X2925Y3878D02*
X5078D01*
X5334Y4134D01*
Y4851D01*
X5588D02*
Y5157D01*
X5334D02*
X5588D01*
X11938Y4572D02*
Y4890D01*
X10922Y4635D02*
X11112D01*
X11176Y4572D01*
X10922Y4890D02*
X11176D01*
X7811Y2890D02*
X11390D01*
X11938Y4064D02*
X13145D01*
X10922Y3365D02*
X11145D01*
X10604Y4254D02*
X11621D01*
X11938Y4572D01*
X11145Y3365D02*
X11505Y3005D01*
X11621Y3120D02*
Y4254D01*
X11390Y2890D02*
X11505Y3005D01*
X11621Y3120D01*
X7112Y4928D02*
X7790D01*
X5842Y4851D02*
X6003Y4690D01*
X6190D01*
X5540Y4190D02*
X7540D01*
X6190Y4690D02*
X6540Y4340D01*
X9757D01*
X10604Y3492D01*
D12*
X10749Y6420D02*
D03*
Y7182D02*
D03*
X11257Y6420D02*
D03*
Y7182D02*
D03*
X4572Y5157D02*
D03*
X5334D02*
D03*
X5588D02*
D03*
X6350D02*
D03*
X3492Y5017D02*
D03*
X2731D02*
D03*
X11176Y4572D02*
D03*
X11938D02*
D03*
X11176Y4890D02*
D03*
X11938D02*
D03*
Y4064D02*
D03*
X11176D02*
D03*
X8190Y4940D02*
D03*
X7540Y4190D02*
D03*
X5540D02*
D03*
D13*
X5179Y7061D02*
D03*
X5382D02*
D03*
X5950Y7154D02*
D03*
Y6646D02*
D03*
X6400Y7154D02*
D03*
Y6646D02*
D03*
X6998Y7050D02*
D03*
X7202D02*
D03*
X7655Y7061D02*
D03*
X7859D02*
D03*
X7112Y4928D02*
D03*
Y4724D02*
D03*
Y3137D02*
D03*
Y3340D02*
D03*
D14*
X12209Y7114D02*
D03*
X11959Y6614D02*
D03*
X12459D02*
D03*
X3425Y4128D02*
D03*
X2925Y3878D02*
D03*
Y4378D02*
D03*
X13140Y3265D02*
D03*
Y5115D02*
D03*
D15*
X9631Y6419D02*
D03*
Y6673D02*
D03*
Y6927D02*
D03*
Y7181D02*
D03*
X8869Y6419D02*
D03*
Y6673D02*
D03*
Y6927D02*
D03*
D16*
Y7181D02*
D03*
D17*
X10604Y3238D02*
D03*
X10922Y3111D02*
D03*
D18*
X10604Y3492D02*
D03*
Y3747D02*
D03*
Y4001D02*
D03*
Y4254D02*
D03*
Y4508D02*
D03*
Y4762D02*
D03*
X10922Y4890D02*
D03*
Y4635D02*
D03*
Y3365D02*
D03*
Y3619D02*
D03*
Y3874D02*
D03*
Y4128D02*
D03*
Y4381D02*
D03*
D19*
X2892Y3101D02*
D03*
Y3355D02*
D03*
D20*
X4699Y4547D02*
D03*
X4953D02*
D03*
X6604Y4851D02*
D03*
X6350D02*
D03*
X6096D02*
D03*
X5842D02*
D03*
X5588D02*
D03*
X5334D02*
D03*
X5080D02*
D03*
X4826D02*
D03*
X4572D02*
D03*
X4318D02*
D03*
X4064D02*
D03*
X3810D02*
D03*
X6604Y3327D02*
D03*
X6350D02*
D03*
X6096D02*
D03*
X5842D02*
D03*
X5588D02*
D03*
X5334D02*
D03*
X5080D02*
D03*
X4826D02*
D03*
X4572D02*
D03*
X4318D02*
D03*
X4064D02*
D03*
X3810D02*
D03*
X5994Y4547D02*
D03*
X5740D02*
D03*
D21*
X12192Y3238D02*
D03*
D22*
X12542D02*
D03*
D23*
X13140Y3015D02*
D03*
Y4865D02*
D03*
D24*
X13145Y4064D02*
D03*
Y3814D02*
D03*
D25*
Y4314D02*
D03*
D26*
X7790Y5227D02*
D03*
X7811Y2890D02*
D03*
D27*
X7560Y4657D02*
D03*
X7790D02*
D03*
X8020D02*
D03*
X8040Y3460D02*
D03*
X7811D02*
D03*
X7581D02*
D03*
M02*
